<?xml version="1.0" encoding="UTF-8"?>
<svg width="41px" height="39px" viewBox="0 0 41 39" version="1.1" xmlns="http://www.w3.org/2000/svg" xmlns:xlink="http://www.w3.org/1999/xlink">
    <title>A99D4957-69B6-4EF1-9EAC-ACE19C249F07@1,5x</title>
    <g id="Page-1" stroke="none" stroke-width="1" fill="none" fill-rule="evenodd">
        <g id="home" transform="translate(-259.000000, -4862.000000)" fill="#009BDB" fill-rule="nonzero">
            <g id="Sessão4" transform="translate(-2.000000, 4034.000000)">
                <g id="1836027" transform="translate(261.000000, 828.000000)">
                    <path d="M15.5,14 C15.6314453,14 15.7603515,13.9470703 15.8533203,13.8539062 C15.9464844,13.7605469 16,13.6320313 16,13.5 C16,13.3685547 15.9464844,13.2400391 15.8533203,13.1464844 C15.7603515,13.0535156 15.6314453,13 15.5,13 C15.3683594,13 15.2394531,13.0535156 15.1464843,13.1464844 C15.0533203,13.2394531 15,13.3685547 15,13.5 C15,13.6320313 15.0533203,13.7605469 15.1464843,13.8539062 C15.2394531,13.9470703 15.3683594,14 15.5,14 Z" id="Path"></path>
                    <path d="M17.5,14 C17.6314453,14 17.7605469,13.9470703 17.8535156,13.8539062 C17.9464843,13.7605469 18,13.6320313 18,13.5 C18,13.3685547 17.9464843,13.2400391 17.8535156,13.1464844 C17.7605469,13.0535156 17.6314453,13 17.5,13 C17.3685547,13 17.2394531,13.0535156 17.1464844,13.1464844 C17.0535157,13.2400391 17,13.3685547 17,13.5 C17,13.6320313 17.0535157,13.7605469 17.1464844,13.8539062 C17.2394531,13.9470703 17.3685547,14 17.5,14 Z" id="Path"></path>
                    <path d="M21.7479912,14 L26.2520088,14 C26.6651571,14 27,13.7761719 27,13.5 C27,13.2238281 26.6651571,13 26.2520088,13 L21.7479912,13 C21.334843,13 21,13.2238281 21,13.5 C21,13.7761719 21.334843,14 21.7479912,14 L21.7479912,14 Z" id="Path"></path>
                    <path d="M15.5,19 C15.3683594,19 15.2394531,19.0535156 15.1464843,19.1464844 C15.0533203,19.2394531 15,19.3685547 15,19.5 C15,19.6320313 15.0533203,19.7605469 15.1464843,19.8539063 C15.2394531,19.9470703 15.3683594,20 15.5,20 C15.6314453,20 15.7603515,19.9470703 15.8533203,19.8539063 C15.9464844,19.7605469 16,19.6320313 16,19.5 C16,19.3685547 15.9464844,19.2394531 15.8533203,19.1464844 C15.7603515,19.0535156 15.6314453,19 15.5,19 Z" id="Path"></path>
                    <path d="M17.5,19 C17.3685547,19 17.2394531,19.0535156 17.1464844,19.1464844 C17.0535157,19.2394531 17,19.3685547 17,19.5 C17,19.6320313 17.0535157,19.7605469 17.1464844,19.8539063 C17.2394531,19.9470703 17.3685547,20 17.5,20 C17.6314453,20 17.7605469,19.9470703 17.8535156,19.8539063 C17.9464843,19.7605469 18,19.6320313 18,19.5 C18,19.3685547 17.9464843,19.2394531 17.8535156,19.1464844 C17.7605469,19.0535156 17.6314453,19 17.5,19 Z" id="Path"></path>
                    <path d="M26.2520088,19 L21.7479912,19 C21.334843,19 21,19.2238281 21,19.5 C21,19.7761719 21.334843,20 21.7479912,20 L26.2520088,20 C26.6651571,20 27,19.7761719 27,19.5 C27,19.2238282 26.6651571,19 26.2520088,19 L26.2520088,19 Z" id="Path"></path>
                    <path d="M21.5,37 C21.6316407,37 21.7605469,36.9464844 21.8535156,36.8535156 C21.9464844,36.7605469 22,36.6314453 22,36.5 C22,36.3685547 21.9464844,36.2394531 21.8535156,36.1464844 C21.7605469,36.0535156 21.6316407,36 21.5,36 C21.3685547,36 21.2396485,36.0535156 21.1464844,36.1464844 C21.053125,36.2394531 21,36.3685547 21,36.5 C21,36.6314453 21.053125,36.7605469 21.1464844,36.8535156 C21.2396485,36.9464844 21.3685547,37 21.5,37 Z" id="Path"></path>
                    <path d="M38.5976562,26.6133964 L34.9941406,26.6133964 L34.9941406,22.7380373 C34.9941406,22.3217057 34.6356659,21.9842827 34.1933594,21.9842827 L30.1419067,21.9842827 C30.2307434,21.7484399 30.2798538,21.494931 30.2798538,21.230528 L30.2798538,20.4767733 L31.1582107,20.4767733 C34.7851868,20.4767733 37.735878,17.7008362 37.735878,14.2886241 C37.735878,10.9694536 34.943779,8.25240359 31.453186,8.10695246 C30.5247803,4.88200132 27.9457016,2.20941104 24.5918045,1.04668551 C24.176712,0.90270661 23.7162628,1.1029227 23.5636139,1.49363852 C23.4106521,1.88435434 23.6233597,2.31746886 24.0381394,2.46144776 C27.0848618,3.51758755 29.383667,6.02941614 30.0377426,9.01675794 C30.1178208,9.3830356 30.470665,9.63831113 30.8679275,9.61711178 C30.9789734,9.611223 31.0712509,9.60827868 31.1582107,9.60827868 C33.901825,9.60827868 36.1343155,11.7078977 36.1343155,14.2886241 C36.1343155,16.869645 33.901825,18.969264 31.1582107,18.969264 L30.279541,18.969264 L30.279541,18.2155093 C30.279541,17.6366493 30.0471267,17.1084321 29.6661301,16.7079999 C30.0471268,16.3075678 30.279541,15.7793507 30.279541,15.2004906 L30.279541,12.1854719 C30.279541,10.9385379 29.2019272,9.92420787 27.8771973,9.92420787 L13.1428223,9.92420787 C11.8184052,9.92420787 10.7404785,10.9385379 10.7404785,12.1854719 L10.7404785,15.2004906 C10.7404785,15.7793507 10.9728928,16.3075678 11.3542022,16.7079999 C10.9728928,17.1084321 10.7404785,17.6366493 10.7404785,18.2155093 L10.7404785,18.969264 L8.20456694,18.969264 C6.3637085,18.969264 4.86568453,17.5603905 4.86568453,15.8288158 C4.86568453,14.5441941 5.68398287,13.4017846 6.95053101,12.9183216 C7.31369779,12.7796426 7.5170212,12.4142482 7.43099976,12.0544481 C7.3765717,11.8259663 7.34904484,11.5936567 7.34904484,11.3634082 C7.34904484,9.63183351 8.84675594,8.22296005 10.6879272,8.22296005 C10.8014755,8.22296005 10.9212799,8.22914317 11.0438995,8.2415095 C11.4086304,8.277725 11.7533417,8.07603676 11.8797149,7.75186338 C12.831894,5.3133492 14.8601226,3.39156927 17.4448318,2.4794083 C17.8589859,2.33336833 18.0688782,1.89878165 17.913414,1.50894916 C17.7582627,1.11911666 17.2965622,0.921844894 16.8824082,1.06788486 C14.0452652,2.06896529 11.7814941,4.11087494 10.5943985,6.71633395 C7.91303251,6.76344362 5.74716947,8.83008585 5.74716947,11.3634082 C5.74716947,11.5038539 5.75405123,11.6442996 5.76781466,11.7850397 C4.22850041,12.6023924 3.26412203,14.13169 3.26412203,15.8288158 C3.26412203,18.3915817 5.48034668,20.4767733 8.20456694,20.4767733 L10.7404785,20.4767733 L10.7404785,21.230528 C10.7404785,21.494931 10.7892761,21.7484399 10.8784256,21.9842827 L6.82697294,21.9842827 C6.38466646,21.9842827 6.02619169,22.3217057 6.02619169,22.7380373 L6.02619169,27.8444308 L3.35671236,27.8444308 C1.85900118,27.8444308 0.640625,28.9912568 0.640625,30.4010136 L0.640625,34.4924882 C0.275268555,34.5625638 0,34.8664211 0,35.2312266 L0,36.1230715 C0,37.7094895 1.37102511,39 3.05641939,39 L10.551857,39 C12.2372513,39 13.6082764,37.7094895 13.6082764,36.1230715 L13.6082764,35.2312266 C13.6082764,34.8664211 13.3333206,34.5625638 12.9676514,34.4924882 L12.9676514,30.4010136 C12.9676514,28.9912568 11.7492752,27.8444308 10.251564,27.8444308 L7.62775419,27.8444308 L7.62775419,23.491792 L19.7095413,23.491792 L19.7095413,28.4474346 L18.3779297,28.4474346 C16.9871978,28.4474346 15.8554688,29.5127019 15.8554688,30.8217618 L15.8554688,36.6256728 C15.8554688,37.9347327 16.9871978,39 18.3779297,39 L22.6220703,39 C24.0128022,39 25.1445312,37.9347327 25.1445312,36.6256728 L25.1445312,30.8217618 C25.1445312,29.5127019 24.0128022,28.4474346 22.6220703,28.4474346 L21.3111038,28.4474346 L21.3111038,23.491792 L33.3925781,23.491792 L33.3925781,26.6133964 L29.7890625,26.6133964 C28.4643326,26.6133964 27.3867188,27.6277264 27.3867188,28.8746604 L27.3867188,33.7237173 C27.3867188,34.9706513 28.4643326,35.9849813 29.7890625,35.9849813 L31.6308594,35.9849813 L31.6308594,37.4924907 L29.8691406,37.4924907 C29.4268341,37.4924907 29.0683594,37.8299136 29.0683594,38.2462453 C29.0683594,38.662577 29.4268341,39 29.8691406,39 L38.5175781,39 C38.9598847,39 39.3183594,38.662577 39.3183594,38.2462453 C39.3183594,37.8299136 38.9598847,37.4924907 38.5175781,37.4924907 L36.7558594,37.4924907 L36.7558594,35.9849813 L38.5976562,35.9849813 C39.9223862,35.9849813 41,34.9706513 41,33.7237173 L41,28.8746604 C41,27.6277264 39.9223862,26.6133964 38.5976562,26.6133964 L38.5976562,26.6133964 Z M12.0067139,36.1230715 C12.0067139,36.8782983 11.3542022,37.4924907 10.551857,37.4924907 L3.05641939,37.4924907 C2.25407414,37.4924907 1.6015625,36.8782983 1.6015625,36.1230715 L1.6015625,35.9849813 L12.0067139,35.9849813 L12.0067139,36.1230715 Z M11.3660889,30.4010136 L11.3660889,34.477472 L2.2421875,34.477472 L2.2421875,30.4010136 C2.2421875,29.822448 2.74205021,29.3519402 3.35671236,29.3519402 L10.251564,29.3519402 C10.8662262,29.3519402 11.3660889,29.822448 11.3660889,30.4010136 L11.3660889,30.4010136 Z M23.5429687,30.8217618 L23.5429687,36.6256728 C23.5429687,37.1035415 23.1297531,37.4924907 22.6220703,37.4924907 L18.3779297,37.4924907 C17.8702469,37.4924907 17.4570312,37.1035415 17.4570312,36.6256728 L17.4570312,30.8217618 C17.4570312,30.3438931 17.8702469,29.9549439 18.3779297,29.9549439 L22.6220703,29.9549439 C23.1297531,29.9549439 23.5429687,30.3438931 23.5429687,30.8217618 Z M12.3423538,12.1854719 C12.3423538,11.7697291 12.7014541,11.4317172 13.1431351,11.4317172 L27.8775101,11.4317172 C28.3188782,11.4317172 28.6782913,11.7697291 28.6782913,12.1854719 L28.6782913,15.2004906 C28.6782913,15.6162334 28.3188782,15.9542453 27.8775101,15.9542453 L13.1431351,15.9542453 C12.7014541,15.9542453 12.3423538,15.6162334 12.3423538,15.2004906 L12.3423538,12.1854719 Z M23.1826172,21.9842827 L13.1431351,21.9842827 C12.7014541,21.9842827 12.3423538,21.6462708 12.3423538,21.230528 L12.3423538,18.2155093 C12.3423538,17.7997665 12.7014541,17.4617546 13.1431351,17.4617546 L27.8775101,17.4617546 C28.3188782,17.4617546 28.6782913,17.7997665 28.6782913,18.2155093 L28.6782913,21.230528 C28.6782913,21.6462708 28.3188782,21.9842827 27.8775101,21.9842827 L23.1826172,21.9842827 Z M35.1542969,37.4924907 L33.2324219,37.4924907 L33.2324219,35.9849813 L35.1542969,35.9849813 L35.1542969,37.4924907 Z M39.3984375,33.7237173 C39.3984375,34.1394601 39.0393372,34.477472 38.5976562,34.477472 L29.7890625,34.477472 C29.3473816,34.477472 28.9882812,34.1394601 28.9882812,33.7237173 L28.9882812,28.8746604 C28.9882812,28.4589176 29.3473816,28.1209057 29.7890625,28.1209057 L38.5976562,28.1209057 C39.0393372,28.1209057 39.3984375,28.4589176 39.3984375,28.8746604 L39.3984375,33.7237173 Z" id="Shape"></path>
                    <path d="M21.5,1 C21.6314453,1 21.7605469,0.9464844 21.8535156,0.8535156 C21.9464843,0.7605469 22,0.6314453 22,0.5 C22,0.3685547 21.9464843,0.2394531 21.8535156,0.1464844 C21.7605469,0.0535156 21.6314453,0 21.5,0 C21.3679687,0 21.2394531,0.0535156 21.1464844,0.1464844 C21.0529297,0.2394531 21,0.3685547 21,0.5 C21,0.6314453 21.0529297,0.7605469 21.1464844,0.8535156 C21.2394531,0.9464844 21.3685547,1 21.5,1 Z" id="Path"></path>
                </g>
            </g>
        </g>
    </g>
</svg>