<?xml version="1.0" encoding="UTF-8"?>
<svg width="27px" height="34px" viewBox="0 0 27 34" version="1.1" xmlns="http://www.w3.org/2000/svg" xmlns:xlink="http://www.w3.org/1999/xlink">
    <title>2D281071-001D-4C0F-95A5-503AF1239D09@1,5x</title>
    <defs>
        <filter x="-52.3%" y="-26.1%" width="204.5%" height="152.3%" filterUnits="objectBoundingBox" id="filter-1">
            <feOffset dx="0" dy="2" in="SourceAlpha" result="shadowOffsetOuter1"></feOffset>
            <feGaussianBlur stdDeviation="5" in="shadowOffsetOuter1" result="shadowBlurOuter1"></feGaussianBlur>
            <feColorMatrix values="0 0 0 0 0   0 0 0 0 0   0 0 0 0 0  0 0 0 0.1 0" type="matrix" in="shadowBlurOuter1" result="shadowMatrixOuter1"></feColorMatrix>
            <feMerge>
                <feMergeNode in="shadowMatrixOuter1"></feMergeNode>
                <feMergeNode in="SourceGraphic"></feMergeNode>
            </feMerge>
        </filter>
    </defs>
    <g id="Page-1" stroke="none" stroke-width="1" fill="none" fill-rule="evenodd" stroke-linecap="round" stroke-linejoin="round">
        <g id="home" transform="translate(-1374.000000, -5734.000000)" stroke="#FFFFFF" stroke-width="2">
            <g id="Sessão-5" transform="translate(0.000000, 5176.000000)">
                <g id="Group-35" transform="translate(758.000000, 247.000000)">
                    <g id="Group-33">
                        <g id="Group-26" filter="url(#filter-1)" transform="translate(607.000000, 304.000000)">
                            <polyline id="Path" points="19 15 26 22 19 29"></polyline>
                        </g>
                    </g>
                </g>
            </g>
        </g>
    </g>
</svg>