<?xml version="1.0" encoding="UTF-8"?>
<svg width="52px" height="52px" viewBox="0 0 52 52" version="1.1" xmlns="http://www.w3.org/2000/svg" xmlns:xlink="http://www.w3.org/1999/xlink">
    <title>0CF7965E-541D-4094-B27B-570EE65BBA4F@1,5x</title>
    <g id="Page-1" stroke="none" stroke-width="1" fill="none" fill-rule="evenodd">
        <g id="home" transform="translate(-909.000000, -3674.000000)" fill="#6D7278" fill-rule="nonzero">
            <g id="Sessão-3" transform="translate(-677.000000, 2625.000000)">
                <g id="grandes-obras" transform="translate(1586.000000, 1049.000000)">
                    <g id="2593258">
                        <path d="M17.6532891,27.9412656 C18.0740625,27.9412656 18.4150078,27.6003203 18.4150078,27.1795469 C18.4150078,26.7587734 18.0740625,26.4178281 17.6532891,26.4178281 L14.2147891,26.4178281 L14.2147891,24.1334844 C14.2147891,23.7127109 13.8738438,23.3717656 13.4530703,23.3717656 C13.0322969,23.3717656 12.6913516,23.7127109 12.6913516,24.1334844 L12.6913516,26.4178281 L10.0144688,26.4178281 L10.0144688,17.6210937 C10.0144688,17.0605703 9.57907031,16.6216172 9.02321875,16.6216172 L1.21245313,16.6216172 C0.583375,16.6216172 0.0904921875,17.1662969 0.0904921875,17.8615937 L0.0904921875,50.7600234 C0.0904921875,51.4553203 0.583375,52 1.21245313,52 L17.2930469,52 C17.9116641,52 18.4150078,51.4437422 18.4150078,50.7600234 L18.4150078,42.8622187 C18.4150078,42.4414453 18.0740625,42.1005 17.6532891,42.1005 C17.2325156,42.1005 16.8915703,42.4414453 16.8915703,42.8622187 L16.8915703,50.4765625 L1.61403125,50.4765625 L1.61403125,18.1450547 L8.49113281,18.1450547 L8.49113281,20.0619453 L5.91814844,20.0619453 C5.497375,20.0619453 5.15642969,20.4028906 5.15642969,20.8236641 C5.15642969,21.2444375 5.497375,21.5853828 5.91814844,21.5853828 L8.49103125,21.5853828 L8.49103125,24.3513359 L6.18251562,24.3513359 C5.76174219,24.3513359 5.42079687,24.6922812 5.42079687,25.1130547 C5.42079687,25.5338281 5.76174219,25.8747734 6.18251562,25.8747734 L8.49103125,25.8747734 L8.49103125,32.6052187 C8.49103125,33.0259922 8.83197656,33.3669375 9.25275,33.3669375 L16.8915703,33.3669375 L16.8915703,39.3205312 C16.8915703,39.7413047 17.2325156,40.08225 17.6532891,40.08225 C18.0740625,40.08225 18.4150078,39.7413047 18.4150078,39.3205312 L18.4150078,32.842875 C18.4150078,32.2255781 17.8839375,31.8435 17.3918672,31.8435 L14.2147891,31.8435 L14.2147891,27.9412656 L17.6532891,27.9412656 Z M12.6913516,31.8435 L10.0144688,31.8435 L10.0144688,27.9412656 L12.69125,27.9412656 L12.69125,31.8435 L12.6913516,31.8435 Z" id="Shape"></path>
                        <path d="M43.6282031,35.2305078 L43.6282031,31.4691406 L43.6282031,24.5775156 C43.6282031,24.5772109 43.6282031,24.5768047 43.6282031,24.5765 L43.6282031,22.3801094 L43.6282031,13.9235078 C43.6282031,13.9232031 43.6282031,13.9227969 43.6282031,13.9224922 L43.6282031,13.2911797 L43.6282031,9.3575625 L45.1118281,9.3575625 C45.8040781,9.3575625 46.3672422,8.79480469 46.3672422,8.1030625 L46.3672422,8.03298438 L50.3141641,8.03298438 C50.6515547,8.03298438 50.9611172,7.92370313 51.2022266,7.7423125 C51.2458984,7.7130625 51.2872344,7.6789375 51.3254219,7.63963281 C51.3340547,7.63079688 51.3414688,7.62125 51.3495938,7.61210938 C51.5704922,7.38897656 51.7061797,7.09525781 51.7061797,6.77279688 L51.7061797,2.58476563 C51.7061797,1.88977344 51.0817734,1.32447656 50.3141641,1.32447656 L46.3673438,1.32447656 L46.3673438,1.2545 C46.3673438,0.562757813 45.8041797,2.88657986e-15 45.1119297,2.88657986e-15 L35.4245938,2.88657986e-15 C34.7323438,2.88657986e-15 34.1690781,0.562757813 34.1690781,1.2545 L34.1690781,1.32447656 L32.7289219,1.32447656 L24.2541406,1.32447656 C24.2532266,1.32447656 24.2524141,1.32447656 24.2515,1.32447656 L23.6195781,1.32447656 L12.7152188,1.32447656 C11.9460859,1.32447656 11.3203594,1.88977344 11.3203594,2.58476563 L11.3203594,6.77269531 C11.3203594,7.46758594 11.9460859,8.03288281 12.7152188,8.03288281 L16.3396797,8.03288281 L16.3396797,10.6587813 L13.5218281,13.6537578 L12.8257188,13.6537578 C12.1590625,13.6537578 11.6167188,14.1956953 11.6167188,14.8618438 L11.6167188,18.4238438 C11.6167188,19.0915156 12.1590625,19.6347734 12.8257188,19.6347734 L21.3744375,19.6347734 C22.0427187,19.6347734 22.5863828,19.0915156 22.5863828,18.4238438 L22.5863828,14.8618438 C22.5863828,14.1956953 22.0427187,13.6537578 21.3744375,13.6537578 L20.6811719,13.6537578 L17.8632187,10.6587813 L17.8632187,8.03298438 L23.6197812,8.03298438 L32.7290234,8.03298438 L34.1691797,8.03298438 L34.1691797,8.1030625 C34.1691797,8.79480469 34.7324453,9.3575625 35.4246953,9.3575625 L36.9082187,9.3575625 L36.9082187,13.2909766 L36.9082187,22.3800078 L36.9082187,31.4690391 L36.9082187,39.79625 L34.5210937,39.79625 C33.46525,39.79625 32.6062344,40.6541484 32.6062344,41.7086719 L32.6062344,46.6768047 L31.7704766,46.6768047 C30.29975,46.6768047 29.1031406,47.8714844 29.1031406,49.339875 L29.1031406,50.7281328 C29.1031406,51.4294219 29.6755469,51.9998984 30.3790703,51.9998984 L50.3985625,51.9998984 C51.1004609,51.9998984 51.6714453,51.4294219 51.6714453,50.7281328 L51.6714453,49.339875 C51.6714453,47.8714844 50.4761563,46.6768047 49.0071563,46.6768047 L48.1713984,46.6768047 L48.1713984,41.7086719 C48.1713984,40.6541484 47.3109609,39.79625 46.2534922,39.79625 L43.6282031,39.79625 L43.6282031,35.2315234 C43.6282031,35.2312187 43.6282031,35.2309141 43.6282031,35.2305078 Z M50.1828438,2.84821875 L50.1828438,5.46853125 L47.4838203,2.84811719 L50.1828438,2.84821875 Z M46.3673438,3.88740625 L49.0680938,6.50954687 L46.3673438,6.50954687 L46.3673438,3.88740625 Z M12.8437969,6.50914062 L12.8437969,2.84791406 L13.2660938,2.84791406 L17.0360938,6.50924219 L12.8437969,6.50914062 Z M21.0628438,15.1772969 L21.0628438,18.1114375 L13.1400547,18.1114375 L13.1400547,15.1772969 L21.0628438,15.1772969 Z M18.5892891,13.6538594 L15.6135078,13.6538594 L17.1013984,12.0724297 L18.5892891,13.6538594 Z M15.4527344,2.84791406 L22.3752344,2.84791406 L18.9139844,6.20942969 L15.4527344,2.84791406 Z M23.6196797,6.50954687 L20.7917734,6.50944531 L24.2529219,3.14803125 L27.7141719,6.50954687 L23.6196797,6.50954687 Z M26.1305078,2.84791406 L32.7289219,2.84791406 L33.0531094,2.84791406 L29.5917578,6.20942969 L26.1305078,2.84791406 Z M32.7289219,6.50954687 L31.4694453,6.50954687 L34.1690781,3.8878125 L34.1690781,6.50954687 L32.7289219,6.50954687 Z M46.2533906,41.3197891 C46.4709375,41.3197891 46.6478594,41.4942734 46.6478594,41.7087734 L46.6478594,46.6769062 L42.2129297,46.6769062 C41.7921563,46.6769062 41.4512109,47.0178516 41.4512109,47.438625 C41.4512109,47.8593984 41.7921563,48.2003437 42.2129297,48.2003437 L49.0070547,48.2003437 C49.6361328,48.2003437 50.1479062,48.7115078 50.1479062,49.3399766 L50.1479062,50.4765625 L30.6265781,50.4765625 L30.6265781,49.3399766 C30.6265781,48.7115078 31.1397734,48.2003437 31.7704766,48.2003437 L38.5239766,48.2003437 C38.94475,48.2003437 39.2856953,47.8593984 39.2856953,47.438625 C39.2856953,47.0178516 38.94475,46.6769062 38.5239766,46.6769062 L34.1296719,46.6769062 L34.1296719,41.7087734 C34.1296719,41.4979297 34.3090312,41.3197891 34.5210937,41.3197891 L37.6698359,41.3197891 L42.8664844,41.3197891 L46.2533906,41.3197891 Z M41.8024141,13.9228984 L38.4316563,17.3782578 L38.4316563,13.2909766 L38.4316563,10.4674375 L41.8024141,13.9228984 Z M39.4770391,9.3575625 L42.1047656,9.3575625 L42.1047656,12.0513047 L39.4770391,9.3575625 Z M42.1047656,15.7944922 L42.1047656,22.3800078 L42.1047656,22.7052109 L38.7339063,19.24975 L42.1047656,15.7944922 Z M41.8024141,24.5769063 L38.4316563,28.0323672 L38.4316563,22.3800078 L38.4316563,21.1214453 L41.8024141,24.5769063 Z M42.1047656,26.4486016 L42.1047656,31.4691406 L42.1047656,33.3594219 L38.7340078,29.9039609 L42.1047656,26.4486016 Z M41.8024141,35.2311172 L38.4316563,38.6864766 L38.4316563,31.7756562 L41.8024141,35.2311172 Z M42.1047656,37.1027109 L42.1047656,39.7963516 L39.4770391,39.7963516 L42.1047656,37.1027109 Z M42.8664844,7.834125 L37.6798906,7.834125 C37.6793828,7.834125 37.6787734,7.834125 37.6781641,7.834125 L37.6698359,7.834125 L35.6924141,7.834125 L35.6924141,1.5234375 L44.8438047,1.5234375 L44.8438047,7.834125 L42.8664844,7.834125 Z" id="Shape"></path>
                        <path d="M15.0658828,36.7815703 C15.0658828,36.1537109 14.5560391,35.6430547 13.9295,35.6430547 L4.57620313,35.6430547 C3.9479375,35.6430547 3.436875,36.1537109 3.436875,36.7815703 L3.436875,39.8885703 C3.436875,40.5164297 3.9479375,41.0270859 4.57620313,41.0270859 L13.9295,41.0270859 C14.5561406,41.0270859 15.0658828,40.5164297 15.0658828,39.8885703 L15.0658828,36.7815703 Z M8.49103125,39.5036484 L4.9603125,39.5036484 L4.9603125,37.1664922 L8.49113281,37.1664922 L8.49113281,39.5036484 L8.49103125,39.5036484 Z M13.5424453,39.5036484 L10.0144688,39.5036484 L10.0144688,37.1664922 L13.5423438,37.1664922 L13.5423438,39.5036484 L13.5424453,39.5036484 Z" id="Shape"></path>
                        <path d="M13.9293984,43.3033047 L4.57620313,43.3033047 C3.9479375,43.3033047 3.436875,43.8139609 3.436875,44.4418203 L3.436875,47.5488203 C3.436875,48.1765781 3.9479375,48.6872344 4.57620313,48.6872344 L13.9295,48.6872344 C14.5561406,48.6872344 15.0658828,48.1765781 15.0658828,47.5488203 L15.0658828,44.4418203 C15.0658828,43.8139609 14.5560391,43.3033047 13.9293984,43.3033047 L13.9293984,43.3033047 Z M8.49103125,47.1637969 L4.9603125,47.1637969 L4.9603125,44.8267422 L8.49113281,44.8267422 L8.49113281,47.1637969 L8.49103125,47.1637969 Z M13.5424453,47.1637969 L10.0144688,47.1637969 L10.0144688,44.8267422 L13.5423438,44.8267422 L13.5423438,47.1637969 L13.5424453,47.1637969 Z" id="Shape"></path>
                    </g>
                </g>
            </g>
        </g>
    </g>
</svg>