<?xml version="1.0" encoding="UTF-8"?>
<svg width="43px" height="43px" viewBox="0 0 43 43" version="1.1" xmlns="http://www.w3.org/2000/svg" xmlns:xlink="http://www.w3.org/1999/xlink">
    <title>DA825BC5-0EC8-4779-BC4F-82068F6DEABA@1,5x</title>
    <g id="Page-1" stroke="none" stroke-width="1" fill="none" fill-rule="evenodd">
        <g id="home" transform="translate(-258.000000, -4442.000000)" fill="#009BDB" fill-rule="nonzero" stroke="#00A7E0" stroke-width="0.2">
            <g id="Sessão4" transform="translate(-2.000000, 4034.000000)">
                <g id="479459" transform="translate(261.000000, 409.000000)">
                    <path d="M40.9961602,38.9642462 L40.9755001,38.6365765 L40.6301238,33.1562913 C40.4634014,30.5112577 38.7575003,28.2321152 36.2842119,27.3501141 L28.1582993,24.4521567 C27.6668607,24.276807 27.1189672,24.294342 26.6396205,24.4976507 C26.6142357,24.5083979 26.5892514,24.5200341 26.5643472,24.5318318 L24.620214,23.9262692 L24.6200539,22.2979408 C26.6384193,20.9312634 28.1971371,18.4477617 28.2876252,16.1466398 L28.3448009,16.1466398 C29.2318246,16.1466398 29.9534873,15.4184132 29.9534873,14.5233215 L29.9534873,13.0018191 C29.9534873,12.8044093 29.9166515,12.6159689 29.8523489,12.4407808 C30.2419282,12.2289874 30.5081074,11.8095217 30.5081074,11.327108 L30.5081074,10.4775102 C30.5081074,9.86144277 30.074325,9.3472721 29.5032089,9.23834517 L29.5032089,8.99665344 C29.5032089,8.92538225 29.502328,8.8544343 29.5006464,8.78356715 C29.4816679,8.03012894 29.3591486,7.28703393 29.1366119,6.57513018 C29.0369148,6.25586437 28.6993862,6.07833287 28.3832383,6.17950239 C28.0669303,6.28018708 27.8913193,6.62054333 27.9911765,6.93972833 C28.1798402,7.54359403 28.2837815,8.17428743 28.2997971,8.81427355 C28.3013986,8.87479749 28.3020392,8.93564466 28.3020392,8.99665344 L28.3020392,9.82322137 C28.3020392,10.158002 28.570861,10.4292688 28.9026241,10.4292688 L29.2775491,10.4292688 C29.2875589,10.4292688 29.3069378,10.446319 29.3069378,10.477591 L29.3069378,11.3271888 C29.3069378,11.3585416 29.2875589,11.3755918 29.2775491,11.3755918 L11.7224548,11.3755918 C11.712445,11.3755918 11.6930662,11.3585416 11.6930662,11.3271888 L11.6930662,10.477591 C11.6930662,10.446319 11.712445,10.4292688 11.7224548,10.4292688 L12.0972998,10.4292688 C12.4290629,10.4292688 12.6978846,10.158002 12.6978846,9.82322137 L12.6978846,8.99665344 C12.6978846,8.93564466 12.6986854,8.87479749 12.7002069,8.81435436 C12.7806052,5.61628228 15.1123958,2.91040155 18.1294937,2.36867592 L18.1294937,4.59820334 L18.1294937,4.59933463 C18.1294937,5.15269637 18.3499483,5.6548269 18.7065356,6.02184924 C18.7111801,6.02661682 18.7155844,6.03162681 18.7202289,6.03639438 C18.7251137,6.04132357 18.7303187,6.04601034 18.7352836,6.05085872 C19.0987575,6.41044688 19.5958816,6.63274509 20.1436149,6.63274509 L20.144736,6.63274509 L20.8559085,6.63274509 L20.8570296,6.63274509 C21.404763,6.63274509 21.9018871,6.41044688 22.265361,6.05085872 C22.2703258,6.04592953 22.2755309,6.04132357 22.2804157,6.03639438 C22.2851403,6.03162681 22.2895445,6.02661682 22.294109,6.02184924 C22.6506962,5.6548269 22.8711509,5.15269637 22.8711509,4.59933463 L22.8711509,4.59820334 L22.8711509,2.36811028 C24.4964135,2.65755855 25.9672858,3.57293264 26.9803522,4.94591297 C27.1786253,5.21427079 27.5546715,5.26978474 27.8207706,5.07003149 C28.0867896,4.87011664 28.1418833,4.4904077 27.9437704,4.22196907 C26.6581185,2.47978462 24.7457763,1.361021 22.6510165,1.11116783 C22.3171714,0.452353829 21.6381102,0 20.8559085,0 L20.144736,0 C19.3623742,0 18.6832329,0.452434636 18.3494679,1.11141025 C16.5793442,1.32223396 14.9330211,2.15324625 13.6789199,3.47806601 C12.32344,4.90995416 11.5494063,6.79411533 11.4993576,8.78356715 C11.4976759,8.85435349 11.496715,8.92530145 11.496715,8.99657263 L11.496715,9.23826436 C10.9255989,9.3472721 10.4918965,9.86144277 10.4918965,10.4774294 L10.4918965,11.3270272 C10.4918965,11.8094409 10.7580757,12.2289066 11.1476551,12.4407 C11.0834325,12.6158881 11.0465166,12.8043285 11.0465166,13.0017383 L11.0465166,14.5232407 C11.0465166,15.4183324 11.7681793,16.146559 12.6552031,16.146559 L12.7118983,16.146559 C12.7959001,18.4495394 14.357821,20.9440308 16.3797098,22.3140213 L16.3794696,23.9261883 L14.4350962,24.5315086 C13.9383726,24.296847 13.3590084,24.2675143 12.8417047,24.4520759 L4.71571195,27.3501949 C2.24234349,28.232196 0.536522442,30.5112577 0.369880174,33.1563721 L0.3268783,33.8389431 C0.305817792,34.1729965 0.55718256,34.4609094 0.888224914,34.4822423 C1.21862664,34.5018783 1.5045851,34.2497625 1.52572568,33.91579 L1.56872756,33.2332189 C1.70469996,31.0735889 3.09709581,29.2129424 5.11594167,28.492958 L7.19404524,27.7518832 L7.19404524,39.7879051 L1.89504531,39.7879051 C1.72592062,39.7879051 1.56736623,39.727866 1.44164381,39.6174037 C1.42370634,39.6016465 1.4064095,39.5848388 1.38983336,39.5669806 C1.27348006,39.4418116 1.20797627,39.2831887 1.20173019,39.1140611 C1.20084933,39.0899 1.20116965,39.0655773 1.20269113,39.041093 L1.37093496,36.3714135 C1.39199546,36.0373601 1.1406307,35.7494472 0.809588341,35.7281143 C0.477585052,35.7074279 0.19314808,35.9604325 0.172087572,36.2945667 L0.00392382184,38.9640845 L0.00392382184,38.9641653 C0.00184179446,38.9970535 0.000640624816,39.0299417 0.000117289803,39.0627491 C-0.00496483353,39.5221331 0.155271197,39.9720627 0.448997214,40.322843 C0.469977644,40.3478929 0.491678775,40.372458 0.513940453,40.3964575 C0.558543886,40.4443757 0.605389502,40.4897888 0.654317145,40.5325354 C0.996730572,40.8315996 1.43908131,41 1.89488515,41 L1.89496523,41 L7.79454998,41 L33.2053739,41 L39.1049586,41 C39.2026538,41 39.2997083,40.9922426 39.3953214,40.9772126 C39.8095647,40.9117595 40.1962613,40.7081275 40.4860635,40.3965383 C40.8209496,40.0363845 41.0052891,39.555102 40.9998844,39.0629107 C40.9994434,39.0300225 40.9982422,38.9971343 40.9961602,38.9642462 Z M28.2933107,12.5905957 L28.344881,12.5905957 C28.5695798,12.5905957 28.7523978,12.7749958 28.7523978,13.0017383 L28.7523978,14.5232407 C28.7523978,14.7499832 28.5695798,14.9344641 28.344881,14.9344641 L28.2933107,14.9344641 L28.2933107,12.5905957 Z M19.3306633,2.03462256 C19.3306633,1.96860378 19.3394719,1.90161534 19.3577297,1.82985932 C19.3586105,1.82622303 19.3590109,1.82250594 19.3598117,1.81895046 C19.4536631,1.46986712 19.7694906,1.21209493 20.144736,1.21209493 L20.8559085,1.21209493 C21.2310739,1.21209493 21.5469815,1.46986712 21.6408329,1.81886966 C21.6416336,1.82250594 21.642034,1.82622303 21.6429149,1.82977851 C21.6611727,1.90153453 21.6699812,1.96852298 21.6699812,2.03454175 L21.6699812,4.59812253 C21.6699812,4.82454187 21.5790927,5.02987075 21.4322297,5.17871601 C21.4319895,5.17895843 21.4318293,5.17920085 21.4315891,5.17944326 C21.4242219,5.18687745 21.4161341,5.19358437 21.4084466,5.20069533 C21.263105,5.33669238 21.0692363,5.42056935 20.8559085,5.42056935 L20.144736,5.42056935 C19.9313282,5.42056935 19.7375395,5.33669238 19.592198,5.20069533 C19.5845906,5.19350357 19.5764226,5.18687745 19.5690555,5.17944326 C19.5688152,5.17920085 19.5686551,5.17895843 19.5684148,5.17871601 C19.4216319,5.02987075 19.3306633,4.82454187 19.3306633,4.59812253 L19.3306633,2.03462256 L19.3306633,2.03462256 Z M12.7066932,14.9344641 L12.6552031,14.9344641 C12.4305843,14.9344641 12.2476862,14.7499832 12.2476862,14.5232407 L12.2476862,13.0017383 C12.2476862,12.7749958 12.4305043,12.5905957 12.6552031,12.5905957 L12.7066932,12.5905957 L12.7066932,14.9344641 Z M26.8721669,25.7269574 L27.0656353,25.6330604 C27.073563,25.6292625 27.081731,25.6264343 27.0896587,25.622798 C27.2987423,25.5290627 27.5420992,25.518073 27.7579895,25.5950007 L29.2511234,26.1275144 L24.8353035,29.5277639 C24.6686612,29.6560843 24.4699077,29.7238808 24.2603436,29.7238808 C24.0752834,29.7238808 23.8956685,29.6697406 23.7408778,29.5672782 L21.7181081,28.2285597 L26.8721669,25.7269574 Z M13.9078628,15.9526238 L13.9078628,15.5405116 L13.9078628,12.5905149 L27.0921411,12.5905149 L27.0921411,15.5405116 L27.0921411,15.9366242 C27.0921411,18.0241749 25.4274,20.4966061 23.4747787,21.5802998 C23.4704545,21.582724 23.4661303,21.5850674 23.461806,21.5874108 C23.3986245,21.6222383 23.3351227,21.6553689 23.2713806,21.6872066 C23.2608103,21.692459 23.25024,21.6979538 23.2396697,21.7031254 C23.1039376,21.7698715 22.9670843,21.8294257 22.8295904,21.8817882 C22.8110924,21.8888184 22.7926745,21.8953637 22.7742565,21.9020706 C22.7238074,21.9204945 22.6732782,21.9378678 22.6226689,21.9542715 C22.6031299,21.9605744 22.583671,21.9670389 22.564212,21.9730186 C22.4971867,21.9936242 22.4301615,22.0130177 22.3630561,22.0298254 L22.2844996,22.0495422 C21.899805,22.1460249 21.5713252,22.2222253 21.2754371,22.2743454 C20.9795489,22.3264655 20.7162525,22.3543436 20.462085,22.3543436 C20.0147695,22.3543436 19.5555223,22.2709515 18.9187422,22.1157225 C18.9148184,22.1147529 18.9111348,22.1139448 18.9071309,22.1129751 C18.8946387,22.1099045 18.881586,22.1066722 18.8689337,22.1035208 C18.7885354,22.0837232 18.705975,22.0631176 18.619651,22.0411383 C18.5530261,22.024169 18.4864813,22.0046947 18.4199365,21.9840082 L18.3623604,21.9652612 C18.3531515,21.9622713 18.3441027,21.9588775 18.3348937,21.9558068 C18.294134,21.9421506 18.2534544,21.9282519 18.2128549,21.9133027 C18.1937162,21.9063533 18.1745776,21.899404 18.1556792,21.8922122 C18.1526362,21.8910001 18.1495132,21.8897072 18.1464702,21.8884951 C18.0101775,21.8358094 17.8745254,21.7764168 17.7399944,21.7095091 C17.7359104,21.707489 17.7319065,21.7054688 17.7278225,21.7033679 C15.690799,20.6848041 13.9078628,18.1094256 13.9078628,15.9526238 Z M13.2419344,25.5950007 C13.4659926,25.515164 13.7203202,25.5291435 13.9344487,25.6330604 L19.2818958,28.2284789 L17.258966,29.5671974 C17.1040952,29.6697406 16.9244803,29.7238 16.7396603,29.7238 C16.7395802,29.7238 16.7395802,29.7238 16.7395802,29.7238 C16.5300963,29.7238 16.3311826,29.6559227 16.1645403,29.5276831 L11.7487204,26.1274336 L13.2419344,25.5950007 Z M19.899297,39.7879051 L8.39521488,39.7879051 L8.39521488,27.3235288 L10.3955627,26.6101706 L15.4359108,30.4913793 C15.8082734,30.7780802 16.2712842,30.9359758 16.7395002,30.9359758 C16.7395802,30.9359758 16.7395802,30.9359758 16.7396603,30.9359758 C17.1591888,30.9359758 17.5666256,30.8131501 17.9177675,30.5807511 L19.899297,29.269426 L19.899297,39.7879051 Z M17.3563408,25.9487708 L16.0280073,25.3040171 L16.8480058,25.0488307 C17.2862726,24.9124296 17.5806392,24.5097717 17.5806392,24.0470746 L17.5807994,22.9663708 C17.7055609,23.0178444 17.8311231,23.0644697 17.9574061,23.1065698 C17.9693377,23.1105293 17.9807889,23.114812 17.9928807,23.1187715 L17.998406,23.1205492 C18.0266736,23.1296804 18.0549411,23.1390539 18.0832086,23.1477002 C18.1714545,23.1748511 18.250972,23.1974769 18.3262453,23.2167088 C18.5309246,23.2688289 18.7218305,23.3154541 18.9029669,23.356827 C18.9561386,23.3689479 19.0086698,23.3806648 19.06024,23.3918161 C19.0664861,23.3931898 19.0729724,23.3946443 19.0791384,23.396018 C19.5873933,23.5051874 20.0190136,23.5657113 20.4537569,23.5664386 C20.4563995,23.5664386 20.4591222,23.5665194 20.4617647,23.5665194 C20.4618448,23.5665194 20.4619249,23.5665194 20.462005,23.5665194 C20.9353459,23.5665194 21.4031614,23.4962179 21.9701936,23.3700792 C22.1592577,23.3279791 22.3592925,23.2797377 22.5742218,23.2257591 L22.6527782,23.2060423 C22.7334168,23.1858408 22.8142154,23.1626493 22.8950141,23.138165 C22.9207192,23.1304076 22.9463441,23.1222462 22.9720491,23.1140847 C23.0273029,23.0963882 23.0826368,23.0776411 23.1378906,23.0579243 C23.1675996,23.0474195 23.1973886,23.0373995 23.2270174,23.0263291 C23.2909997,23.0023296 23.3549019,22.977118 23.4188842,22.9505327 L23.4190444,24.0469938 C23.4190444,24.5097717 23.7134911,24.9123488 24.1515977,25.0486691 L24.9716763,25.3040979 L20.4998819,27.4745559 L17.3563408,25.9487708 Z M32.6048691,39.7879859 L21.1004667,39.7879859 L21.1004667,29.269426 L23.0820763,30.5807511 C23.4332182,30.8131501 23.8406549,30.9359758 24.2603436,30.9359758 C24.7286396,30.9359758 25.1916505,30.7780802 25.563933,30.4912985 L30.6043611,26.6100898 L32.6048691,27.3235288 L32.6048691,39.7879859 Z M39.6972954,39.452074 C39.6725513,39.4928004 39.643483,39.5312642 39.6101706,39.5670614 C39.4777216,39.7095229 39.2983469,39.7879859 39.1050387,39.7879859 L33.8060388,39.7879859 L33.8060388,27.7518832 L35.8840623,28.492958 C36.0733666,28.5604313 36.2570655,28.6380054 36.4348386,28.7248722 C38.1529116,29.5645308 39.3080364,31.2761704 39.4313565,33.2332189 L39.7973128,39.0411738 C39.7988343,39.0656581 39.7991546,39.0899808 39.7982738,39.1141419 C39.7937894,39.2349474 39.7591156,39.3503388 39.6972954,39.452074 Z" id="Shape"></path>
                    <path d="M29.8157185,32 L25.1842815,32 C24.5312618,32 24,32.5094924 24,33.1357534 L24,34.8642466 C24,35.4905076 24.5312618,36 25.1842815,36 L29.8157185,36 C30.4687382,36 31,35.4905076 31,34.8642466 L31,33.1357534 C31,32.5094924 30.4687382,32 29.8157185,32 Z M29.7575729,34.8084042 L25.2424271,34.8084042 L25.2424271,33.1915164 L29.7575729,33.1915164 L29.7575729,34.8084042 Z" id="Shape"></path>
                </g>
            </g>
        </g>
    </g>
</svg>