<?xml version="1.0" encoding="UTF-8"?>
<svg width="65px" height="65px" viewBox="0 0 65 65" version="1.1" xmlns="http://www.w3.org/2000/svg" xmlns:xlink="http://www.w3.org/1999/xlink">
    <title>58D7B192-5E7A-4928-BBED-9C5B18590205@1,5x</title>
    <g id="Page-1" stroke="none" stroke-width="1" fill="none" fill-rule="evenodd">
        <g id="home" transform="translate(-909.000000, -3316.000000)" fill="#009BDB" fill-rule="nonzero">
            <g id="Sessão-3" transform="translate(-677.000000, 2625.000000)">
                <g id="rodovia" transform="translate(1586.000000, 691.000000)">
                    <g id="highway">
                        <path d="M32.5,4.47027344 C31.9641309,4.47027344 31.5298242,4.90470703 31.5298242,5.44044922 L31.5298242,6.21664063 C31.5298242,6.75250977 31.9641309,7.18681641 32.5,7.18681641 C33.0358691,7.18681641 33.4701758,6.75238281 33.4701758,6.21664063 L33.4701758,5.44044922 C33.4701758,4.90470703 33.0358691,4.47027344 32.5,4.47027344 Z" id="Path"></path>
                        <path d="M32.5,51.0470898 C31.9641309,51.0470898 31.5298242,51.4815234 31.5298242,52.0172656 L31.5298242,53.5786621 C31.5298242,54.1145312 31.9641309,54.5488379 32.5,54.5488379 C33.0358691,54.5488379 33.4701758,54.1144043 33.4701758,53.5786621 L33.4701758,52.0172656 C33.4701758,51.4815234 33.0358691,51.0470898 32.5,51.0470898 Z" id="Path"></path>
                        <path d="M32.5,44.281123 C31.9641309,44.281123 31.5298242,44.7154297 31.5298242,45.2512988 L31.5298242,46.8126953 C31.5298242,47.3485645 31.9641309,47.7828711 32.5,47.7828711 C33.0358691,47.7828711 33.4701758,47.3485645 33.4701758,46.8126953 L33.4701758,45.2512988 C33.4701758,44.7154297 33.0358691,44.281123 32.5,44.281123 Z" id="Path"></path>
                        <path d="M32.5,37.5151562 C31.9641309,37.5151562 31.5298242,37.9495898 31.5298242,38.485332 L31.5298242,40.0467285 C31.5298242,40.5825977 31.9641309,41.0169043 32.5,41.0169043 C33.0358691,41.0169043 33.4701758,40.5824707 33.4701758,40.0467285 L33.4701758,38.485332 C33.4701758,37.9494629 33.0358691,37.5151562 32.5,37.5151562 Z" id="Path"></path>
                        <path d="M32.5,30.7490625 C31.9641309,30.7490625 31.5298242,31.1834961 31.5298242,31.7192383 L31.5298242,33.2806348 C31.5298242,33.816377 31.9641309,34.2508105 32.5,34.2508105 C33.0358691,34.2508105 33.4701758,33.816377 33.4701758,33.2806348 L33.4701758,31.7192383 C33.4701758,31.1834961 33.0358691,30.7490625 32.5,30.7490625 Z" id="Path"></path>
                        <path d="M32.5,23.9830957 C31.9641309,23.9830957 31.5298242,24.4175293 31.5298242,24.9532715 L31.5298242,26.514668 C31.5298242,27.0505371 31.9641309,27.4848437 32.5,27.4848437 C33.0358691,27.4848437 33.4701758,27.0504102 33.4701758,26.514668 L33.4701758,24.9532715 C33.4701758,24.4175293 33.0358691,23.9830957 32.5,23.9830957 Z" id="Path"></path>
                        <path d="M32.5,17.2171289 C31.9641309,17.2171289 31.5298242,17.6514355 31.5298242,18.1873047 L31.5298242,19.7487012 C31.5298242,20.2845703 31.9641309,20.718877 32.5,20.718877 C33.0358691,20.718877 33.4701758,20.2845703 33.4701758,19.7487012 L33.4701758,18.1873047 C33.4701758,17.6514355 33.0358691,17.2171289 32.5,17.2171289 Z" id="Path"></path>
                        <path d="M32.5,10.4511621 C31.9641309,10.4511621 31.5298242,10.8855957 31.5298242,11.4213379 L31.5298242,12.9827344 C31.5298242,13.5186035 31.9641309,13.9529102 32.5,13.9529102 C33.0358691,13.9529102 33.4701758,13.5184766 33.4701758,12.9827344 L33.4701758,11.4213379 C33.4701758,10.8854687 33.0358691,10.4511621 32.5,10.4511621 L32.5,10.4511621 Z" id="Path"></path>
                        <path d="M7.12219727,31.5298242 L6.34600586,31.5298242 C5.81013672,31.5298242 5.37583008,31.9641309 5.37583008,32.5 C5.37583008,33.0358691 5.81013672,33.4701758 6.34600586,33.4701758 L7.12219727,33.4701758 C7.65806641,33.4701758 8.09237305,33.0358691 8.09237305,32.5 C8.09237305,31.9641309 7.65806641,31.5298242 7.12219727,31.5298242 Z" id="Path"></path>
                        <path d="M51.1118359,33.4701758 L52.6732324,33.4701758 C53.2091016,33.4701758 53.6434082,33.0358691 53.6434082,32.5 C53.6434082,31.9641309 53.2091016,31.5298242 52.6732324,31.5298242 L51.1118359,31.5298242 C50.5760937,31.5298242 50.1416602,31.9641309 50.1416602,32.5 C50.1416602,33.0358691 50.5759668,33.4701758 51.1118359,33.4701758 Z" id="Path"></path>
                        <path d="M13.8881641,31.5298242 L12.3267676,31.5298242 C11.7908984,31.5298242 11.3565918,31.9641309 11.3565918,32.5 C11.3565918,33.0358691 11.7910254,33.4701758 12.3267676,33.4701758 L13.8881641,33.4701758 C14.4240332,33.4701758 14.8583398,33.0358691 14.8583398,32.5 C14.8583398,31.9641309 14.4240332,31.5298242 13.8881641,31.5298242 L13.8881641,31.5298242 Z" id="Path"></path>
                        <path d="M57.8778027,33.4701758 L58.6539941,33.4701758 C59.1898633,33.4701758 59.6241699,33.0358691 59.6241699,32.5 C59.6241699,31.9641309 59.1897363,31.5298242 58.6539941,31.5298242 L57.8778027,31.5298242 C57.3419336,31.5298242 56.907627,31.9641309 56.907627,32.5 C56.907627,33.0358691 57.3419336,33.4701758 57.8778027,33.4701758 Z" id="Path"></path>
                        <path d="M32.5,57.8130566 C31.9641309,57.8130566 31.5298242,58.2474902 31.5298242,58.7832324 L31.5298242,59.5594238 C31.5298242,60.095293 31.9641309,60.5295996 32.5,60.5295996 C33.0358691,60.5295996 33.4701758,60.095166 33.4701758,59.5594238 L33.4701758,58.7832324 C33.4701758,58.2474902 33.0358691,57.8130566 32.5,57.8130566 Z" id="Path"></path>
                        <path d="M63.3416113,17.631123 L56.3358301,17.631123 C55.8098633,17.631123 55.3836816,18.0574316 55.3836816,18.5832715 C55.3836816,19.1091113 55.8098633,19.5354199 56.3358301,19.5354199 L63.0957031,19.5354199 L63.0957031,21.7103809 L47.368877,21.7103809 L47.368877,19.5354199 L51.8924707,19.5354199 C52.4184375,19.5354199 52.8446191,19.1091113 52.8446191,18.5832715 C52.8446191,18.0574316 52.4184375,17.631123 51.8924707,17.631123 L47.368877,17.631123 L47.368877,1.65838867 C47.368877,0.743945313 46.6249316,0 45.7104883,0 C44.6054883,0 20.4823633,0 19.2896387,0 C18.3751953,0 17.63125,0.743945313 17.63125,1.65838867 L17.63125,17.631123 L1.65838867,17.631123 C0.743818359,17.631123 7.21644966e-15,18.3750684 7.21644966e-15,19.2895117 L7.21644966e-15,45.7104883 C7.21644966e-15,46.6249316 0.743818359,47.368877 1.65838867,47.368877 L17.631123,47.368877 L17.631123,63.3416113 C17.631123,64.2560547 18.3750684,65 19.2895117,65 L45.7103613,65 C46.6248047,65 47.36875,64.2560547 47.36875,63.3416113 L47.36875,47.368877 L63.3413574,47.368877 C64.2558008,47.368877 64.9997462,46.6249316 64.9997462,45.7104883 C64.9997462,43.557998 64.9997462,20.4771582 64.9997462,19.2895117 C64.9997462,18.3750684 64.2560547,17.631123 63.3416113,17.631123 Z M63.0957031,23.6146777 L63.0957031,41.3853223 L47.368877,41.3853223 L47.368877,23.6146777 L63.0957031,23.6146777 Z M1.90429687,23.6146777 L17.631123,23.6146777 L17.631123,41.3853223 L1.90429687,41.3853223 L1.90429687,23.6146777 Z M17.631123,19.5354199 L17.631123,21.7103809 L1.90429688,21.7103809 L1.90429688,19.5354199 L17.631123,19.5354199 Z M1.90429688,45.4645801 L1.90429688,43.2896191 L17.631123,43.2896191 L17.631123,45.4645801 L1.90429688,45.4645801 Z M19.5354199,1.90429688 L21.7103809,1.90429688 L21.7103809,63.0957031 L19.5354199,63.0957031 C19.5354199,56.3405273 19.5354199,8.38753906 19.5354199,1.90429688 Z M45.464707,63.0957031 L43.2896191,63.0957031 L43.2896191,34.7216797 C43.2896191,34.1958398 42.8634375,33.7695312 42.3374707,33.7695312 C41.8115039,33.7695312 41.3853223,34.1958398 41.3853223,34.7216797 L41.3853223,63.0957031 L23.6146777,63.0957031 L23.6146777,1.90429688 L41.3854492,1.90429688 L41.3854492,30.2783203 C41.3854492,30.8041602 41.8116309,31.2304688 42.3375977,31.2304688 C42.8635645,31.2304688 43.2897461,30.8041602 43.2897461,30.2783203 L43.2897461,1.90429688 L45.464707,1.90429688 L45.464707,42.3374707 L45.464707,46.4167285 L45.464707,63.0957031 L45.464707,63.0957031 Z M47.368877,45.4645801 L47.368877,43.2896191 L63.0957031,43.2896191 L63.0957031,45.4645801 L47.368877,45.4645801 Z" id="Shape"></path>
                    </g>
                </g>
            </g>
        </g>
    </g>
</svg>